<?xml version="1.0" encoding="utf-8"?>
<!-- Generator: Adobe Illustrator 19.0.1, SVG Export Plug-In . SVG Version: 6.00 Build 0)  -->
<svg version="1.1" id="Шар_1" xmlns="http://www.w3.org/2000/svg" xmlns:xlink="http://www.w3.org/1999/xlink" x="0px" y="0px"
	 viewBox="-294 413.1 6.1 16.8" style="enable-background:new -294 413.1 6.1 16.8;" xml:space="preserve">
<style type="text/css">
	.st0{fill:#FFFFFF;}
</style>
<g>
	<g>
		<path class="st0" d="M-290.9,420.9l-3.1-2.7v-5.1l5.9,5.3L-290.9,420.9z"/>
	</g>
	<g>
		<path class="st0" d="M-287.9,419.3v5.1l-6.1,5.5v-5.1L-287.9,419.3z"/>
	</g>
</g>
</svg>
