<?xml version="1.0" encoding="utf-8"?>
<!-- Generator: Adobe Illustrator 19.0.1, SVG Export Plug-In . SVG Version: 6.00 Build 0)  -->
<svg version="1.1" id="Шар_1" xmlns="http://www.w3.org/2000/svg" xmlns:xlink="http://www.w3.org/1999/xlink" x="0px" y="0px"
	 viewBox="-293.3 412.8 6.1 16.8" style="enable-background:new -293.3 412.8 6.1 16.8;" xml:space="preserve">
<style type="text/css">
	.st0{fill:#B3B3B3;}
</style>
<g>
	<g>
		<path class="st0" d="M-290.3,420.6l3.1-2.7v-5.1l-5.9,5.3L-290.3,420.6z"/>
	</g>
	<g>
		<path class="st0" d="M-293.3,419v5.1l6.1,5.5v-5.1L-293.3,419z"/>
	</g>
</g>
</svg>
